{
  "project_info": {
    "project_number": "920351964457",
    "project_id": "easy-book-e2bc4",
    "storage_bucket": "easy-book-e2bc4.appspot.com"
  },
  "client": [
    {
      "client_info": {
        "mobilesdk_app_id": "1:920351964457:android:f0b34ffb2bda5513d24b38",
        "android_client_info": {
          "package_name": "com.example.esaybook"
        }
      },
      "oauth_client": [
        {
          "client_id": "920351964457-tl7aasj1mr8oot3krih8p4qlere167sc.apps.googleusercontent.com",
          "client_type": 3
        }
      ],
      "api_key": [
        {
          "current_key": "AIzaSyCqBKn3NkE9XJc9CD8cXnkZrX-4OBlZLQY"
        }
      ],
      "services": {
        "appinvite_service": {
          "other_platform_oauth_client": [
            {
              "client_id": "920351964457-tl7aasj1mr8oot3krih8p4qlere167sc.apps.googleusercontent.com",
              "client_type": 3
            }
          ]
        }
      }
    }
  ],
  "configuration_version": "1"
}